{
  "endpoint": "/tournaments?eventTypeId=1000&apiKey=efb6eb94df390eb06bd4d6dd9bc50e8a",
  "method": "GET",
  "status": 200,
  "headers": {
    "date": "Sun, 30 Nov 2025 13:59:06 GMT",
    "content-type": "application/json",
    "transfer-encoding": "chunked",
    "connection": "keep-alive",
    "server": "Apache/2.4.65 () OpenSSL/1.0.2k-fips",
    "cache-control": "no-cache, private",
    "access-control-allow-origin": "*",
    "vary": "Authorization"
  },
  "data": {
    "data": [
      {
        "id": 24,
        "name": "ליגה ספרדית / לה ליגה",
        "eventTypeId": 1000,
        "logo": "https://images-cdn.sportsevents365.com/logos/tournaments/24.png"
      },
      {
        "id": 42,
        "name": "ליגת האלופות",
        "eventTypeId": 1000,
        "logo": "https://images-cdn.sportsevents365.com/logos/tournaments/42.png"
      },
      {
        "id": 46,
        "name": "ליגה אירופית",
        "eventTypeId": 1000,
        "logo": "https://images-cdn.sportsevents365.com/logos/tournaments/46.png"
      },
      {
        "id": 78,
        "name": "גביע הליגה (EFL)",
        "eventTypeId": 1000,
        "logo": "https://images-cdn.sportsevents365.com/logos/tournaments/78.png"
      },
      {
        "id": 133,
        "name": "מוקדמות גביע העולם של פיפ\"א",
        "eventTypeId": 1000,
        "logo": false
      },
      {
        "id": 347,
        "name": "גביע בלגיה",
        "eventTypeId": 1000,
        "logo": false
      },
      {
        "id": 381,
        "name": "גביע הליגה הסקוטי",
        "eventTypeId": 1000,
        "logo": false
      },
      {
        "id": 382,
        "name": "ליגה גרמנית שנייה / בונדסליגה 2",
        "eventTypeId": 1000,
        "logo": "https://images-cdn.sportsevents365.com/logos/tournaments/382.png"
      },
      {
        "id": 386,
        "name": "פוטבול ליג 1",
        "eventTypeId": 1000,
        "logo": false
      },
      {
        "id": 400,
        "name": "ליגה דנית",
        "eventTypeId": 1000,
        "logo": "https://images-cdn.sportsevents365.com/logos/tournaments/400.png"
      }
    ],
    "links": {
      "first": "http://api-v2.sportsevents365.com/tournaments?eventTypeId=1000&page=1",
      "last": "http://api-v2.sportsevents365.com/tournaments?eventTypeId=1000&page=6",
      "prev": null,
      "next": "http://api-v2.sportsevents365.com/tournaments?eventTypeId=1000&page=2"
    },
    "meta": {
      "current_page": 1,
      "from": 1,
      "last_page": 6,
      "links": [
        {
          "url": null,
          "label": "&laquo; Previous",
          "active": false
        },
        {
          "url": "http://api-v2.sportsevents365.com/tournaments?eventTypeId=1000&page=1",
          "label": "1",
          "active": true
        },
        {
          "url": "http://api-v2.sportsevents365.com/tournaments?eventTypeId=1000&page=2",
          "label": "2",
          "active": false
        },
        {
          "url": "http://api-v2.sportsevents365.com/tournaments?eventTypeId=1000&page=3",
          "label": "3",
          "active": false
        },
        {
          "url": "http://api-v2.sportsevents365.com/tournaments?eventTypeId=1000&page=4",
          "label": "4",
          "active": false
        },
        {
          "url": "http://api-v2.sportsevents365.com/tournaments?eventTypeId=1000&page=5",
          "label": "5",
          "active": false
        },
        {
          "url": "http://api-v2.sportsevents365.com/tournaments?eventTypeId=1000&page=6",
          "label": "6",
          "active": false
        },
        {
          "url": "http://api-v2.sportsevents365.com/tournaments?eventTypeId=1000&page=2",
          "label": "Next &raquo;",
          "active": false
        }
      ],
      "path": "http://api-v2.sportsevents365.com/tournaments",
      "per_page": 10,
      "to": 10,
      "total": 56,
      "title": "Tournaments",
      "apiId": 5472,
      "totalPages": 6
    },
    "success": true
  }
}